[gd_scene load_steps=3 format=2]

[ext_resource path="res://StonePlatform.tscn" type="PackedScene" id=1]
[ext_resource path="res://BlueShip.tscn" type="PackedScene" id=2]

[node name="Main" type="Node"]

[node name="PlatformBlue" type="Node2D" parent="."]
position = Vector2( 35, 565 )

[node name="StonePlatform" parent="PlatformBlue" instance=ExtResource( 1 )]

[node name="StonePlatform2" parent="PlatformBlue" instance=ExtResource( 1 )]
position = Vector2( 70, 0 )

[node name="BlueShip" parent="." instance=ExtResource( 2 )]
position = Vector2( 72.7009, 421.901 )
